…
Let’s look at price and room type…

Pirce and neighborhood

``` r
nyc_airbnb %>% 
  group_by(neighbourhood) %>% 
  summarize(mean_price = mean(price, na.rm = TRUE)) %>% 
  arrange(mean_price)
```

    ## # A tibble: 217 × 2
    ##    neighbourhood     mean_price
    ##    <chr>                  <dbl>
    ##  1 Little Neck             41.7
    ##  2 Schuylerville           42.6
    ##  3 Morris Heights          47.6
    ##  4 Mount Eden              49.3
    ##  5 Soundview               50.6
    ##  6 Claremont Village       51.6
    ##  7 Hunts Point             52.2
    ##  8 Baychester              54  
    ##  9 Rosebank                55  
    ## 10 Belmont                 55.4
    ## # … with 207 more rows
…
